Oct 30, 2019 3:38:18 PM edu.baylor.ecs.si.Timer <clinit>
INFO: starting the app
Oct 30, 2019 3:38:18 PM edu.baylor.ecs.si.Timer timeMe
INFO: Calling took: 0
Oct 30, 2019 3:38:18 PM edu.baylor.ecs.si.Timer timeMe
INFO: * should take: 0
Oct 30, 2019 3:38:18 PM org.junit.jupiter.engine.execution.ConditionEvaluator logResult
FINER: Evaluation of condition [org.junit.jupiter.engine.extension.DisabledCondition] resulted in: ConditionEvaluationResult [enabled = true, reason = '@Disabled is not present']
Oct 30, 2019 3:38:18 PM org.junit.jupiter.engine.execution.ConditionEvaluator logResult
FINER: Evaluation of condition [org.junit.jupiter.engine.extension.ScriptExecutionCondition] resulted in: ConditionEvaluationResult [enabled = true, reason = 'Annotation not present']
Oct 30, 2019 3:38:18 PM edu.baylor.ecs.si.Timer timeMe
INFO: Calling took: 0
Oct 30, 2019 3:38:18 PM edu.baylor.ecs.si.Timer timeMe
INFO: * should take: -1
Oct 30, 2019 3:38:18 PM org.junit.jupiter.engine.execution.ConditionEvaluator logResult
FINER: Evaluation of condition [org.junit.jupiter.engine.extension.DisabledCondition] resulted in: ConditionEvaluationResult [enabled = true, reason = '@Disabled is not present']
Oct 30, 2019 3:38:18 PM org.junit.jupiter.engine.execution.ConditionEvaluator logResult
FINER: Evaluation of condition [org.junit.jupiter.engine.extension.ScriptExecutionCondition] resulted in: ConditionEvaluationResult [enabled = true, reason = 'Annotation not present']
Oct 30, 2019 3:38:19 PM edu.baylor.ecs.si.Timer timeMe
INFO: Calling took: 1001
Oct 30, 2019 3:38:19 PM edu.baylor.ecs.si.Timer timeMe
INFO: * should take: 1000
